Chipotle
…
# See which states have the most Chipotle locations
chipotles.by.state <- chipotle %>% 
  group_by(state) %>% 
  count() %>% 
  arrange(desc(n))
chipotles.by.state

## # A tibble: 48 x 2
## # Groups:   state [48]
##    state            n
##    <fct>        <int>
##  1 California     421
##  2 Texas          226
##  3 Ohio           193
##  4 Florida        177
##  5 New York       160
##  6 Illinois       144
##  7 Virginia       107
##  8 Pennsylvania    96
##  9 Maryland        94
## 10 Arizona         85
## # ... with 38 more rows
…
# See which cities have the most locations
chipotles.by.city <- chipotle %>% 
  group_by(location, state) %>% 
  count() %>% 
  arrange(desc(n))
chipotles.by.city

## # A tibble: 1,521 x 3
## # Groups:   location, state [1,521]
##    location      state             n
##    <fct>         <fct>         <int>
##  1 New York      New York         52
##  2 Chicago       Illinois         36
##  3 Houston       Texas            31
##  4 Washington DC Washington DC    21
##  5 Los Angeles   California       20
##  6 Columbus      Ohio             19
##  7 Dallas        Texas            19
##  8 Las Vegas     Nevada           19
##  9 Phoenix       Arizona          19
## 10 Cincinnati    Ohio             17
## # ... with 1,511 more rows
…
