Housing
…
Housing

Razmig Zeitounian

Note: the data set is available from https://www.kaggle.com/harlfoxem/housesalesprediction

## Warning in if (renovated == 0) {: the condition has length > 1 and only the
## first element will be used

## # A tibble: 70 x 2
## # Groups:   zipcode [70]
##    zipcode     n
##    <fct>   <int>
##  1 98001     362
##  2 98002     199
##  3 98003     280
##  4 98004     317
##  5 98005     168
##  6 98006     498
##  7 98007     141
##  8 98008     283
##  9 98010     100
## 10 98011     195
## # ... with 60 more rows
…
